Te...................
----------------------------------------------------------------------
Ran 19 tests in 0.018s

OK
Name             Stmts   Miss Branch BrPart  Cover   Missing
------------------------------------------------------------
Collatz.py          29      0     10      0   100%
TestCollatz.py      85      0      0      0   100%
------------------------------------------------------------
TOTAL              114      0     10      0   100%
